Popularidade de linguagens de programação - Github
…
dados = dados %>% mutate(full_date = paste(month_day, the_month, the_year, sep = '-'))
dados = dados %>% mutate(week_day= weekdays(as.Date(full_date,'%d-%m-%Y')))
dados = dados %>% mutate(weekend = is_weekend(week_day))

Os dados foram cedidos pelo professor da disciplina, Nazareno, e podem ser encontrados aqui. Vamos então ver como funcionam os dados obtidos em uma pequena amostra:

dados

## # A tibble: 978 x 9
##    file_extension month_day the_month the_year users language   full_date
##    <chr>              <int>     <int>    <int> <int> <chr>      <chr>    
##  1 js                    19         4     2016  8640 JavaScript 19-4-2016
##  2 js                    12         4     2016  8612 JavaScript 12-4-2016
##  3 js                    20         4     2016  8550 JavaScript 20-4-2016
##  4 js                    26         4     2016  8511 JavaScript 26-4-2016
##  5 js                    13         4     2016  8484 JavaScript 13-4-2016
##  6 js                    23         2     2016  8447 JavaScript 23-2-2016
##  7 js                    17         2     2016  8419 JavaScript 17-2-2016
##  8 js                    11         4     2016  8383 JavaScript 11-4-2016
##  9 js                    14         4     2016  8378 JavaScript 14-4-2016
## 10 js                    18         2     2016  8374 JavaScript 18-2-2016
## # ... with 968 more rows, and 2 more variables: week_day <chr>,
## #   weekend <lgl>
…
